{
  "name": "unitylive",
  "author": "Ville Vanninen",
  "description": "Stuff any time they change. Run both `npm run watch` & `npm run serve`. Combining them to `npm start` caused caddy to panic, that's why the separate commands.",
  "watch": {
    "reload": "Caddyfile"
  },
  "scripts": {
    "watch": "npm-watch",
    "reload": "cat caddy.pid | xargs -I pidnum kill -s USR1 pidnum",
    "serve": "caddy -pidfile caddy.pid",
    "jjstart": "npm run watch & npm run serve"
  },
  "license": "CC0",
  "devDependencies": {
    "npm-watch": "^0.1.8"
  }
}
