[
{"authToken": "rRsnqme8MVU6Kbh1VFaj9g==", "hashedPassword": "$2a$08$/frwh5G/AqNwrAVR.QOXJe/v3nGnogTGCBgrxsgRFYi5FQYG533JS", "id": ""},
{"authToken": "QpMZSqkvJQofU+ZXw/ciHg==", "hashedPassword": "$2a$08$7aJZ0HNUdWBi7b0rZbZK1uSHdQHhn2Q7sbVfuGyJf8SFgt.Is01oW", "id": "Johhny"},
{"authToken": "2H0twQXQhfSIM+/aKJB5CA==", "hashedPassword": "$2a$08$xaLOKk1gsxBPpyQOvJ1SP.fo6Kp0pbnmDnwpVDpk46cjDfZXFDkx2", "id": "em01"},
{"authToken": "zxLZwaW4xotoCVOVnTm3Yw==", "hashedPassword": "$2a$08$9R7qm.u1XYOtvAiPHmiIj.fHrNP57xiS9ci9nxF9u0YjXn2oWfvRC", "id": "james"},
{"authToken": "/JFJ2aWQmFhYBEx8YM72pw==", "hashedPassword": "$2a$08$cFW6u4cS/wsg5dO2f4x2uO0euUboHB/gKJKtzMlxrmyyGHWsneho2", "id": "jboo"}
]
