<?xml version="1.0" encoding="UTF-8" standalone="no"?>
<svg
   xmlns:dc="http://purl.org/dc/elements/1.1/"
   xmlns:cc="http://creativecommons.org/ns#"
   xmlns:rdf="http://www.w3.org/1999/02/22-rdf-syntax-ns#"
   xmlns:svg="http://www.w3.org/2000/svg"
   xmlns="http://www.w3.org/2000/svg"
   id="svg8"
   version="1.1"
   viewBox="0 0 210 297"
   height="297mm"
   width="210mm">
  <defs
     id="defs2">
    <meshgradient
       y="135.32364"
       x="78.968029"
       gradientUnits="userSpaceOnUse"
       id="meshgradient4532">
      <meshrow
         id="meshrow4534">
        <meshpatch
           id="meshpatch4536">
          <stop
             id="stop4538"
             style="stop-color:#ffffff;stop-opacity:1"
             path="c 17.3423,-12.4712  45.4597,-12.4712  62.802,0" />
          <stop
             id="stop4540"
             style="stop-color:#000000;stop-opacity:1"
             path="c 17.3423,12.4712  17.3423,32.691  0,45.1622" />
          <stop
             id="stop4542"
             style="stop-color:#ffffff;stop-opacity:1"
             path="c -17.3423,12.4712  -45.4597,12.4712  -62.802,0" />
          <stop
             id="stop4544"
             style="stop-color:#000000;stop-opacity:1"
             path="c -17.3423,-12.4712  -17.3423,-32.691  0,-45.1622" />
        </meshpatch>
      </meshrow>
    </meshgradient>
  </defs>
  <metadata
     id="metadata5">
    <rdf:RDF>
      <cc:Work
         rdf:about="">
        <dc:format>image/svg+xml</dc:format>
        <dc:type
           rdf:resource="http://purl.org/dc/dcmitype/StillImage" />
        <dc:title></dc:title>
      </cc:Work>
    </rdf:RDF>
  </metadata>
  <g
     id="layer1">
    <ellipse
       ry="31.934525"
       rx="44.407738"
       style="opacity:0.15;fill:url(#meshgradient4532);fill-opacity:1;stroke:#e361d5;stroke-width:3.33800006;stroke-miterlimit:4;stroke-dasharray:none;stroke-opacity:0.56353592"
       cy="157.90475"
       cx="110.36904"
       id="path3713" />
    <text
       id="text3717"
       y="164.70833"
       x="81.64286"
       style="font-style:normal;font-variant:normal;font-weight:normal;font-stretch:normal;font-size:22.57777786px;line-height:1.25;font-family:'Sitka Text';-inkscape-font-specification:'Sitka Text';letter-spacing:0px;word-spacing:0px;fill:#000000;fill-opacity:1;stroke:none;stroke-width:0.26458332"
       xml:space="preserve"><tspan
         style="font-style:normal;font-variant:normal;font-weight:normal;font-stretch:normal;font-size:22.57777786px;font-family:'Sitka Text';-inkscape-font-specification:'Sitka Text';stroke-width:0.26458332"
         y="164.70833"
         x="81.64286"
         id="tspan3715">unity</tspan></text>
    <flowRoot
       style="font-style:normal;font-weight:normal;font-size:40px;line-height:1.25;font-family:sans-serif;letter-spacing:0px;word-spacing:0px;fill:#000000;fill-opacity:1;stroke:none"
       id="flowRoot3719"
       xml:space="preserve"><flowRegion
         id="flowRegion3721"><rect
           y="505.37683"
           x="334.28571"
           height="108.57143"
           width="74.285713"
           id="rect3723" /></flowRegion><flowPara
         id="flowPara3725" /></flowRoot>  </g>
</svg>
