[
{"appExclulsion": "list of apps to exclude json", "appClass": "all", "url": "http://www.microsoft.com", "app": "mobility", "appInclusion": "list of apps to include json", "fallbackUrl": "fallbackurl or special codes for specific behaviour", "id": "126813b6-d972-4490-bc02-458f030fa53f"}
]
